{
  "development": {
    "dialect": "sqlite",
    "storage": "./db/development.sqlite3"
  },
  "test": {
    "username": "root",
    "password": null,
    "database": "database_test",
    "host": "127.0.0.1",
    "dialect": "sqlite"
  },
  "production": {
    "username": "nodepsql",
    "password": "nodepsql",
    "database": "nodepsql",
    "host": "127.0.0.1",
    "dialect": "postgres"
  }
}
